%YAML 1.1
%TAG !u! tag:unity3d.com,2011:
--- !u!1001 &100100000
Prefab:
  m_ObjectHideFlags: 1
  serializedVersion: 2
  m_Modification:
    m_TransformParent: {fileID: 0}
    m_Modifications: []
    m_RemovedComponents: []
  m_SourcePrefab: {fileID: 0}
  m_RootGameObject: {fileID: 1926527585197470}
  m_IsPrefabAsset: 1
--- !u!1 &1926527585197470
GameObject:
  m_ObjectHideFlags: 0
  m_CorrespondingSourceObject: {fileID: 0}
  m_PrefabInternal: {fileID: 100100000}
  serializedVersion: 6
  m_Component:
  - component: {fileID: 4443720418182774}
  - component: {fileID: 33614884352632512}
  - component: {fileID: 23609182536655486}
  - component: {fileID: 114066770665192332}
  m_Layer: 0
  m_Name: Layer
  m_TagString: Untagged
  m_Icon: {fileID: 0}
  m_NavMeshLayer: 0
  m_StaticEditorFlags: 0
  m_IsActive: 1
--- !u!4 &4443720418182774
Transform:
  m_ObjectHideFlags: 1
  m_CorrespondingSourceObject: {fileID: 0}
  m_PrefabInternal: {fileID: 100100000}
  m_GameObject: {fileID: 1926527585197470}
  m_LocalRotation: {x: 0.7071065, y: -0, z: -0, w: 0.7071072}
  m_LocalPosition: {x: 0, y: 0, z: 0}
  m_LocalScale: {x: 1, y: 1, z: 1}
  m_Children: []
  m_Father: {fileID: 0}
  m_RootOrder: 0
  m_LocalEulerAnglesHint: {x: 90.00001, y: 0, z: 0}
--- !u!23 &23609182536655486
MeshRenderer:
  m_ObjectHideFlags: 1
  m_CorrespondingSourceObject: {fileID: 0}
  m_PrefabInternal: {fileID: 100100000}
  m_GameObject: {fileID: 1926527585197470}
  m_Enabled: 1
  m_CastShadows: 1
  m_ReceiveShadows: 1
  m_DynamicOccludee: 1
  m_MotionVectors: 1
  m_LightProbeUsage: 1
  m_ReflectionProbeUsage: 1
  m_RenderingLayerMask: 4294967295
  m_Materials:
  - {fileID: 2100000, guid: 79d0b748afacb554fb7823b9300cebac, type: 2}
  m_StaticBatchInfo:
    firstSubMesh: 0
    subMeshCount: 0
  m_StaticBatchRoot: {fileID: 0}
  m_ProbeAnchor: {fileID: 0}
  m_LightProbeVolumeOverride: {fileID: 0}
  m_ScaleInLightmap: 1
  m_PreserveUVs: 0
  m_IgnoreNormalsForChartDetection: 0
  m_ImportantGI: 0
  m_StitchLightmapSeams: 0
  m_SelectedEditorRenderState: 3
  m_MinimumChartSize: 4
  m_AutoUVMaxDistance: 0.5
  m_AutoUVMaxAngle: 89
  m_LightmapParameters: {fileID: 0}
  m_SortingLayerID: 0
  m_SortingLayer: 0
  m_SortingOrder: 0
--- !u!33 &33614884352632512
MeshFilter:
  m_ObjectHideFlags: 1
  m_CorrespondingSourceObject: {fileID: 0}
  m_PrefabInternal: {fileID: 100100000}
  m_GameObject: {fileID: 1926527585197470}
  m_Mesh: {fileID: 0}
--- !u!114 &114066770665192332
MonoBehaviour:
  m_ObjectHideFlags: 1
  m_CorrespondingSourceObject: {fileID: 0}
  m_PrefabInternal: {fileID: 100100000}
  m_GameObject: {fileID: 1926527585197470}
  m_Enabled: 1
  m_EditorHideFlags: 0
  m_Script: {fileID: 11500000, guid: fd9947ad075642c4791890686ab1de44, type: 3}
  m_Name: 
  m_EditorClassIdentifier: 
  errorMessage: reinstall the mesh creator package.
  outlineTexture: {fileID: 2800000, guid: 1c05374879635bb4eb7d948a015b1aac, type: 3}
  pixelTransparencyThreshold: 120
  uvWrapMesh: 1
  createEdges: 1
  createBacksidePlane: 0
  frontMaterial: {fileID: 2100000, guid: 79d0b748afacb554fb7823b9300cebac, type: 2}
  meshHeight: 500
  meshWidth: 500
  meshDepth: 0.5
  pivotHeightOffset: 0
  pivotWidthOffset: 0
  pivotDepthOffset: 0
  lastPivotOffset: {x: 0, y: 0, z: 0}
  generateCollider: 0
  usePrimitiveCollider: 1
  useAABBCollider: 0
  maxNumberBoxes: 20
  useAutoGeneratedMaterial: 0
  usePhysicMaterial: 0
  physicMaterial: {fileID: 0}
  setTriggers: 0
  idNumber: 64689bb662e053ee
  mergeClosePoints: 1
  mergeDistance: 3
